{
    "/js/app.js": "/js/app.js?id=f517062ef80e9a2d3c76fc1ee89422d7",
    "/js/vues.js": "/js/vues.js?id=6741c3be73ae014dcb7e37641a75bd31",
    "/css/app.css": "/css/app.css?id=afbdc8dd4f26849df4c267d330574502"
}
